Division,WeightClassKg,Place,Name,Team,BodyweightKg,Best3SquatKg,Best3BenchKg,Best3DeadliftKg,TotalKg,Equipment,Event,Sex
Boys,55.79,1,Jesus Garcia #10,Somerset,51.94,129.27,68.04,131.54,328.85,Single-ply,SBD,M
Boys,51.71,2,Sawyer Yandell,Devine,49.9,136.08,58.97,129.27,324.32,Single-ply,SBD,M
Boys,51.71,3,Robert Kight,Poteet,51.71,95.25,58.97,106.59,260.82,Single-ply,SBD,M
Boys,51.71,4,Collin Everman,Comal Canyon,45.36,79.38,38.56,83.91,201.85,Single-ply,SBD,M
Boys,51.71,DQ,Arturo Alejandro,San Antonio Highlands,50.35,99.79,72.57,,,Single-ply,SBD,M
Boys,55.79,1,Caleb Gale,Somerset,55.79,163.29,92.99,183.7,439.98,Single-ply,SBD,M
Boys,55.79,2,Jon Guillen,Lytle,54.66,138.35,90.72,147.42,376.48,Single-ply,SBD,M
Boys,55.79,3,Ronald Sanchez,Poteet,55.79,133.81,74.84,129.27,337.93,Single-ply,SBD,M
Boys,55.79,4,Juan Guerreo,Lytle,54.88,122.47,68.04,124.74,315.25,Single-ply,SBD,M
Boys,55.79,5,Severo Mateos,San Antonio Highlands,52.16,86.18,68.04,127.01,281.23,Single-ply,SBD,M
Boys,55.79,DQ,Cole Jackson,San Antonio Southside,55.79,165.56,83.91,,,Single-ply,SBD,M
Boys,55.79,DQ,Santos Botello,Castroville Medina Valley,52.62,,,,,Single-ply,SBD,M
Boys,59.87,1,Robert Carrasco,Pleasanton,59.65,188.24,81.65,183.7,453.59,Single-ply,SBD,M
Boys,59.87,2,Ryan Montgomery,Devine,58.97,163.29,92.99,181.44,437.72,Single-ply,SBD,M
Boys,59.87,3,Leonard Garza,Poteet,56.25,167.83,97.52,154.22,419.57,Single-ply,SBD,M
Boys,59.87,4,Caleel Turner,Comal Canyon,58.97,181.44,79.38,158.76,419.57,Single-ply,SBD,M
Boys,59.87,5,Joseph Gonzalez,San Antonio Highlands,59.87,151.95,92.99,158.76,403.7,Single-ply,SBD,M
Boys,59.87,6,Steven Cervantez,San Antonio Highlands,59.42,142.88,88.45,147.42,378.75,Single-ply,SBD,M
Boys,59.87,7,Taylor Carrillo,Lytle,59.42,113.4,70.31,147.42,331.12,Single-ply,SBD,M
Boys,59.87,8,Gilbert Garcia,Northside Holmes,58.97,129.27,65.77,133.81,328.85,Single-ply,SBD,M
Boys,59.87,9,Ezequiel Cortez,Castroville Medina Valley,59.65,113.4,65.77,147.42,326.59,Single-ply,SBD,M
Boys,67.13,10,Nadiv Gonzales,Castroville Medina Valley,60.1,81.65,65.77,99.79,247.21,Single-ply,SBD,M
Boys,59.87,DQ,Benito Flores,San Antonio Southside,56.47,,,,,Single-ply,SBD,M
Boys,67.13,1,Peter Webre,Comal Canyon,65.54,226.8,115.67,201.85,544.31,Single-ply,SBD,M
Boys,67.13,2,Andrew Harris,San Antonio Southside,66.68,217.72,97.52,195.04,510.29,Single-ply,SBD,M
Boys,67.13,3,Feliciano Delgadillo,San Antonio Southside,66.68,222.26,104.33,161.03,487.61,Single-ply,SBD,M
Boys,67.13,4,Ozzie Verela,Somerset,67.13,195.04,106.59,170.1,471.74,Single-ply,SBD,M
Boys,67.13,5,Jonathan Ibarra,Somerset,62.14,188.24,90.72,183.7,462.66,Single-ply,SBD,M
Boys,74.84,6,David Gonzalez,Northside Holmes,67.36,170.1,77.11,183.7,430.91,Single-ply,SBD,M
Boys,67.13,7,Trever Horuath,Castroville Medina Valley,63.28,124.74,88.45,129.27,342.46,Single-ply,SBD,M
Boys,67.13,8,Matthew Rollins,Lytle,61.23,104.33,63.5,102.06,269.89,Single-ply,SBD,M
Boys,74.84,1,Roy Arispe,Devine,72.12,213.19,113.4,217.72,544.31,Single-ply,SBD,M
Boys,74.84,2,Lonnie Overturf,Comal Canyon,68.27,197.31,117.93,195.04,510.29,Single-ply,SBD,M
Boys,74.84,3,Thomas Garcia,Dilley,70.76,188.24,117.93,192.78,498.95,Single-ply,SBD,M
Boys,74.84,4,Darrell DuBose,Devine,69.85,185.97,108.86,197.31,492.15,Single-ply,SBD,M
Boys,74.84,5,Andrew Martinez,Somerset,71.44,158.76,117.93,176.9,453.59,Single-ply,SBD,M
Boys,74.84,6,Daniel Yanez,Lytle,70.08,163.29,102.06,167.83,433.18,Single-ply,SBD,M
Boys,74.84,7,Vince Zargosa,San Antonio Highlands,74.84,142.88,86.18,188.24,417.3,Single-ply,SBD,M
Boys,74.84,8,Taylor Shearrer,Pleasanton,69.4,147.42,74.84,149.69,371.95,Single-ply,SBD,M
Boys,74.84,9,Jake Estrada,Lytle,68.27,136.08,68.04,158.76,362.87,Single-ply,SBD,M
Boys,74.84,10,Jacob Sul,Lytle,70.53,136.08,74.84,145.15,356.07,Single-ply,SBD,M
Boys,74.84,11,Emilio Patlan,Lytle,67.59,122.47,86.18,142.88,351.53,Single-ply,SBD,M
Boys,74.84,12,Tommy Hyatt,Lytle,71.67,120.2,65.77,140.61,326.59,Single-ply,SBD,M
Boys,74.84,13,Jeremiah Garza,Castroville Medina Valley,73.71,111.13,92.99,115.67,319.78,Single-ply,SBD,M
Boys,82.1,1,Tyler Stevens,Bandera,78.47,251.74,131.54,242.67,625.96,Single-ply,SBD,M
Boys,82.1,2,Jeff Moreno,Comal Canyon,77.11,242.67,122.47,231.33,596.47,Single-ply,SBD,M
Boys,82.1,3,Linden Reed,Comal Canyon,77.34,231.33,124.74,226.8,582.87,Single-ply,SBD,M
Boys,82.1,4,Brandon Yates,Comal Canyon,82.1,210.92,140.61,215.46,566.99,Single-ply,SBD,M
Boys,82.1,5,Jacob Fernandez,Natalia,79.83,199.58,129.27,219.99,548.85,Single-ply,SBD,M
Boys,82.1,6,Dwight Taylor,Somerset,78.24,210.92,113.4,215.46,539.77,Single-ply,SBD,M
Boys,82.1,7,Daniel Prado,San Antonio Southside,81.19,226.8,117.93,192.78,537.51,Single-ply,SBD,M
Boys,82.1,8,William Bookout,Lytle,76.66,165.56,120.2,197.31,483.08,Single-ply,SBD,M
Boys,82.1,9,Joseph Sadler,Devine,82.1,181.44,102.06,195.04,478.54,Single-ply,SBD,M
Boys,82.1,10,Justin Roberson,San Antonio Southside,77.79,204.12,106.59,165.56,476.27,Single-ply,SBD,M
Boys,82.1,11,Alec Connally,Bandera,77.79,172.37,124.74,167.83,464.93,Single-ply,SBD,M
Boys,82.1,12,Jj Elias,Somerset,75.98,165.56,92.99,174.63,433.18,Single-ply,SBD,M
Boys,82.1,13,Richard Pena,San Antonio Southside,76.2,163.29,108.86,161.03,433.18,Single-ply,SBD,M
Boys,82.1,14,Kevin Barfield,Castroville Medina Valley,80.29,167.83,81.65,176.9,426.38,Single-ply,SBD,M
Boys,82.1,15,Dalton Mahac,Northside Holmes,82.1,161.03,104.33,156.49,421.84,Single-ply,SBD,M
Boys,82.1,16,Zac Qualls,Pleasanton,77.11,142.88,90.72,183.7,417.3,Single-ply,SBD,M
Boys,82.1,17,David Eriquez,San Antonio Highlands,76.66,127.01,72.57,140.61,340.19,Single-ply,SBD,M
Boys,82.1,18,Raymond Vaught,San Antonio Highlands,82.1,122.47,70.31,142.88,335.66,Single-ply,SBD,M
Boys,82.1,19,Collin Favor,Pleasanton,79.83,120.2,63.5,124.74,308.44,Single-ply,SBD,M
Boys,89.81,1,Ian Bell,Comal Canyon,87.54,331.12,167.83,317.51,816.47,Single-ply,SBD,M
Boys,99.79,2,Daniel Salzar,San Antonio Southside,90.04,249.48,142.88,219.99,612.35,Single-ply,SBD,M
Boys,89.81,3,Casey Benavidez,Somerset,85.73,226.8,120.2,226.8,573.79,Single-ply,SBD,M
Boys,89.81,4,Alex Garcia #14,Boerne,87.09,226.8,113.4,208.65,548.85,Single-ply,SBD,M
Boys,99.79,5,Zane Sanchez,Devine,90.04,208.65,127.01,197.31,532.97,Single-ply,SBD,M
Boys,89.81,6,Franco Guaderrama,San Antonio Highlands,88,188.24,115.67,222.26,526.17,Single-ply,SBD,M
Boys,89.81,7,Abel Gonzalez,Dilley,87.09,222.26,99.79,192.78,514.83,Single-ply,SBD,M
Boys,89.81,8,Jonathon Ramos,San Antonio Southside,84.82,188.24,140.61,174.63,503.49,Single-ply,SBD,M
Boys,89.81,9,Adrian Guardiola,Lytle,85.73,154.22,108.86,190.51,453.59,Single-ply,SBD,M
Boys,89.81,10,Jonathon Mendoza,Northside Holmes,88.9,165.56,92.99,185.97,444.52,Single-ply,SBD,M
Boys,89.81,11,Justin Quesada,Somerset,83.01,170.1,95.25,170.1,435.45,Single-ply,SBD,M
Boys,89.81,12,Domingo Flores,San Antonio Highlands,83.91,156.49,97.52,176.9,430.91,Single-ply,SBD,M
Boys,89.81,13,Brad Reilly,Pleasanton,88.45,158.76,86.18,181.44,426.38,Single-ply,SBD,M
Boys,89.81,14,David Lopez #8,Northside Holmes,88.45,140.61,86.18,185.97,412.77,Single-ply,SBD,M
Boys,89.81,15,Matthew Garcia,Somerset,89.81,149.69,97.52,163.29,410.5,Single-ply,SBD,M
Boys,89.81,16,Mark Cerda,Somerset,89.36,151.95,72.57,183.7,408.23,Single-ply,SBD,M
Boys,89.81,17,Esteban Ferdin,Lytle,84.82,145.15,97.52,163.29,405.97,Single-ply,SBD,M
Boys,89.81,18,Carlos Carrillo,Lytle,84.14,142.88,81.65,158.76,383.29,Single-ply,SBD,M
Boys,89.81,19,Kyle Wehe,Castroville Medina Valley,84.82,138.35,86.18,156.49,381.02,Single-ply,SBD,M
Boys,89.81,20,Justin Real,Comal Canyon,86.18,136.08,81.65,138.35,356.07,Single-ply,SBD,M
Boys,89.81,DQ,Garrett Mangold,Boerne Champion,89.81,,,,,Single-ply,SBD,M
Boys,99.79,1,Salvador Marines,Somerset,97.75,258.55,127.01,254.01,639.57,Single-ply,SBD,M
Boys,99.79,2,Leonard Aranda,Somerset,99.56,242.67,158.76,229.06,630.49,Single-ply,SBD,M
Boys,99.79,3,George Pena,Northside Holmes,94.8,226.8,120.2,226.8,573.79,Single-ply,SBD,M
Boys,99.79,4,Rick Flores,Poteet,92.76,233.6,99.79,204.12,537.51,Single-ply,SBD,M
Boys,99.79,5,Nathan Cervantez,San Antonio Highlands,97.07,174.63,106.59,226.8,508.02,Single-ply,SBD,M
Boys,99.79,6,Steve Cavazos,Natalia,92.08,204.12,102.06,197.31,503.49,Single-ply,SBD,M
Boys,99.79,7,Christian Castillon,Poteet,96.16,190.51,127.01,185.97,503.49,Single-ply,SBD,M
Boys,99.79,8,Justin Falkner,Northside Holmes,97.52,188.24,111.13,183.7,483.08,Single-ply,SBD,M
Boys,99.79,9,Christian Guerra,Castroville Medina Valley,90.26,176.9,127.01,174.63,478.54,Single-ply,SBD,M
Boys,99.79,10,Patrick Rodriguez,Devine,99.34,172.37,115.67,190.51,478.54,Single-ply,SBD,M
Boys,99.79,11,Juan DeLeon,San Antonio Southside,92.99,188.24,97.52,188.24,474,Single-ply,SBD,M
Boys,99.79,12,Matt Molina,San Antonio Highlands,94.57,149.69,120.2,167.83,437.72,Single-ply,SBD,M
Boys,99.79,13,Ricky Moralez,San Antonio Highlands,99.34,142.88,108.86,172.37,424.11,Single-ply,SBD,M
Boys,99.79,14,Richard Juarez,San Antonio Highlands,92.76,154.22,97.52,158.76,410.5,Single-ply,SBD,M
Boys,99.79,15,John Guerra,Bandera,90.72,154.22,86.18,151.95,392.36,Single-ply,SBD,M
Boys,99.79,16,Alejandro Rios,Northside Holmes,95.25,151.95,86.18,151.95,390.09,Single-ply,SBD,M
Boys,99.79,17,Frank Hernandez,Pleasanton,99.79,145.15,81.65,158.76,385.55,Single-ply,SBD,M
Boys,99.79,DQ,Cody Brown #8,San Antonio Southside,97.07,208.65,136.08,,,Single-ply,SBD,M
Boys,99.79,DQ,Keveon Stanton,Northside Holmes,95.25,142.88,111.13,,,Single-ply,SBD,M
Boys,99.79,DQ,Taylor Jones #4,Castroville Medina Valley,97.98,167.83,131.54,,,Single-ply,SBD,M
Boys,109.77,1,Jose Alvarado #4,Somerset,106.82,272.16,129.27,215.46,616.89,Single-ply,SBD,M
Boys,109.77,2,Robert Huitron,San Antonio Southside,100.7,260.82,124.74,199.58,585.13,Single-ply,SBD,M
Boys,124.74,3,Leo Rodriguez,Northside Holmes,110,217.72,113.4,226.8,557.92,Single-ply,SBD,M
Boys,109.77,4,Luke Briscoe,Devine,109.77,219.99,136.08,199.58,555.65,Single-ply,SBD,M
Boys,109.77,5,Kevin Garcia,Poteet,105.23,204.12,127.01,204.12,535.24,Single-ply,SBD,M
Boys,109.77,6,Erik Elizondo,San Antonio Highlands,103.42,195.04,106.59,210.92,512.56,Single-ply,SBD,M
Boys,109.77,7,Lawernce Carptner,Northside Holmes,108.41,183.7,111.13,208.65,503.49,Single-ply,SBD,M
Boys,109.77,8,Daniel Casarez,Somerset,108.18,195.04,124.74,181.44,501.22,Single-ply,SBD,M
Boys,109.77,9,Michael Warmke,Comal Canyon,108.41,190.51,106.59,179.17,476.27,Single-ply,SBD,M
Boys,109.77,10,Irving Tejada,San Antonio Highlands,101.15,158.76,104.33,181.44,444.52,Single-ply,SBD,M
Boys,109.77,11,Roland Bautista,Lytle,109.77,163.29,102.06,174.63,439.98,Single-ply,SBD,M
Boys,109.77,12,Joe Aguero,Somerset,109.09,176.9,83.91,149.69,410.5,Single-ply,SBD,M
Boys,109.77,13,Gaberial Garza,Somerset,109.32,149.69,79.38,147.42,376.48,Single-ply,SBD,M
Boys,109.77,14,Zackary Moreno,Somerset,107.5,117.93,86.18,133.81,337.93,Single-ply,SBD,M
Boys,109.77,15,Leonard Gaona,San Antonio Highlands,100.7,129.27,70.31,124.74,324.32,Single-ply,SBD,M
Boys,109.77,DQ,George Brooks,Lytle,109.77,188.24,115.67,,,Single-ply,SBD,M
Boys,124.74,1,Owen Rathburn,Comal Canyon,124.28,292.57,174.63,244.94,712.14,Single-ply,SBD,M
Boys,124.74,2,Vincent Lee,Northside Holmes,118.84,319.78,154.22,219.99,694,Single-ply,SBD,M
Boys,124.74,3,Reynaldo Medina,San Antonio Southside,113.4,272.16,181.44,226.8,680.39,Single-ply,SBD,M
Boys,124.74,4,Brandon Rodriguez #4,Somerset,118.16,294.84,136.08,247.21,678.12,Single-ply,SBD,M
Boys,124.74,5,Albert Mata #3,San Antonio Southside,113.4,283.5,158.76,233.6,675.85,Single-ply,SBD,M
Boys,124.74,6,William Cavanaugh,Comal Canyon,118.16,281.23,156.49,231.33,669.05,Single-ply,SBD,M
Boys,124.74,7,Javier Paredes,Natalia,124.74,272.16,131.54,249.48,653.17,Single-ply,SBD,M
Boys,124.74,8,Joe Jimenez #2,San Antonio Highlands,119.29,272.16,124.74,238.14,635.03,Single-ply,SBD,M
Boys,124.74,9,Alfred Godines,Somerset,113.17,226.8,172.37,204.12,603.28,Single-ply,SBD,M
Boys,124.74,10,Dj Carlson,Devine,124.74,226.8,115.67,183.7,526.17,Single-ply,SBD,M
Boys,124.74,11,Gabe Garcia,San Antonio Highlands,113.4,172.37,104.33,204.12,480.81,Single-ply,SBD,M
Boys,124.74,12,Raul Loza,Natalia,112.04,226.8,86.18,165.56,478.54,Single-ply,SBD,M
Boys,124.74,13,Alex Hernandez #19,Lytle,124.74,172.37,95.25,172.37,439.98,Single-ply,SBD,M
Boys,124.74,14,Nicholas O'Bryant,Castroville Medina Valley,116.12,181.44,90.72,149.69,421.84,Single-ply,SBD,M
Boys,124.74,15,Bruno Castillo,Somerset,114.31,145.15,97.52,142.88,385.55,Single-ply,SBD,M
Boys,124.74,16,Jason Hernandez,Lytle,115.67,108.86,52.16,120.2,281.23,Single-ply,SBD,M
Boys,124.74,DQ,Sean Pittman,Devine,124.74,,,,,Single-ply,SBD,M
Boys,124.74+,1,Henry Zamora,Uvalde,127.23,294.84,151.95,254.01,700.8,Single-ply,SBD,M
Boys,124.74+,2,Mark Menchaca,Uvalde,136.08,285.76,142.88,263.08,691.73,Single-ply,SBD,M
Boys,124.74+,3,Abraham Jimenez,Somerset,129.27,260.82,138.35,199.58,598.74,Single-ply,SBD,M
Boys,124.74+,4,Angel Garza,Somerset,126.1,231.33,124.74,235.87,591.94,Single-ply,SBD,M
Boys,124.74+,5,Michael Reyes,Natalia,127.01,272.16,111.13,206.38,589.67,Single-ply,SBD,M
Boys,124.74+,6,Nikyren Wellington,Northside Holmes,131.54,238.14,115.67,229.06,582.87,Single-ply,SBD,M
Boys,124.74+,7,Eric Falcon,Northside Holmes,133.81,156.49,86.18,190.51,433.18,Single-ply,SBD,M
Boys,124.74+,DQ,Stevie Balderrama,Devine,126.55,208.65,136.08,,,Single-ply,SBD,M
Boys,124.74+,DQ,Daniel Martinez #22,Northside Holmes,136.08,,,,,Single-ply,SBD,M
Boys,124.74+,DQ,James Ximenez,Northside Holmes,133.81,190.51,,,,Single-ply,SBD,M
