Division,WeightClassKg,Place,Name,Team,BodyweightKg,Best3SquatKg,Best3BenchKg,Best3DeadliftKg,TotalKg,Equipment,Event,Sex
Boys,51.71,1,Daniel Herrera,Navasota,51.26,102.06,72.57,106.59,281.23,Single-ply,SBD,M
Boys,51.71,2,Ryan Kerr,Conroe Woodlands College Park,51.26,104.33,61.23,106.59,272.16,Single-ply,SBD,M
Boys,51.71,3,Cade Logan,Magnolia West,51.71,88.45,54.43,97.52,240.4,Single-ply,SBD,M
Boys,51.71,4,Carlos Aguilar,Bryan,51.62,86.18,45.36,99.79,231.33,Single-ply,SBD,M
Boys,51.71,5,Tristan McDaniel,Navasota,48.99,74.84,45.36,97.52,217.72,Single-ply,SBD,M
Boys,51.71,6,Corbin Feauto,Normangee,50.35,70.31,38.56,83.91,192.78,Single-ply,SBD,M
Boys,55.79,1,Arthur Maya,Navasota,55.34,122.47,81.65,127.01,331.12,Single-ply,SBD,M
Boys,55.79,2,Zan Baer,Normangee,54.43,95.25,63.5,124.74,283.5,Single-ply,SBD,M
Boys,55.79,3,Ivan Perez,Waller,54.88,90.72,68.04,122.47,281.23,Single-ply,SBD,M
Boys,59.87,1,Joseph Herrera #2,Navasota,56.7,149.69,90.72,142.88,383.29,Single-ply,SBD,M
Boys,59.87,2,Cody Tunning,Montgomery,57.15,142.88,83.91,124.74,351.53,Single-ply,SBD,M
Boys,59.87,3,Dylan Jenkins,Montgomery,57.61,113.4,61.23,142.88,317.51,Single-ply,SBD,M
Boys,59.87,4,David Cedillos,Waller,59.42,81.65,81.65,136.08,299.37,Single-ply,SBD,M
Boys,67.13,1,Cameron Gray #2,Navasota,63.05,154.22,97.52,190.51,442.25,Single-ply,SBD,M
Boys,67.13,2,Nathan Van Howten,Magnolia West,66.68,147.42,102.06,190.51,439.98,Single-ply,SBD,M
Boys,67.13,3,Dalton Schooley,Waller,67.13,147.42,81.65,158.76,387.82,Single-ply,SBD,M
Boys,74.84,4,Byron Williams,Bryan,67.18,122.47,83.91,158.76,365.14,Single-ply,SBD,M
Boys,67.13,5,Cole Berry,Montgomery,65.77,117.93,72.57,113.4,303.91,Single-ply,SBD,M
Boys,74.84,1,Carlos Lucio,Bryan,74.84,226.8,145.15,192.78,564.72,Single-ply,SBD,M
Boys,74.84,2,Franteric Powell,Navasota,70.76,213.19,111.13,213.19,537.51,Single-ply,SBD,M
Boys,74.84,3,Noah Steptoe,Navasota,69.4,190.51,102.06,188.24,480.81,Single-ply,SBD,M
Boys,74.84,4,Johnny Tyler,Magnolia West,73.03,195.04,115.67,170.1,480.81,Single-ply,SBD,M
Boys,74.84,5,Aaron Thomas #4,Magnolia West,69.85,181.44,108.86,176.9,467.2,Single-ply,SBD,M
Boys,74.84,6,Adrian Thomas,Magnolia West,68.95,181.44,102.06,172.37,455.86,Single-ply,SBD,M
Boys,74.84,7,Antwone Wallace,Bryan,72.12,176.9,102.06,156.49,435.45,Single-ply,SBD,M
Boys,74.84,8,Jackson Wagner,Bryan,71.67,156.49,90.72,170.1,417.3,Single-ply,SBD,M
Boys,74.84,9,Brandon Champion,Montgomery,73.94,149.69,92.99,154.22,396.89,Single-ply,SBD,M
Boys,74.84,10,Pedro Ott,Conroe Woodlands College Park,73.94,136.08,97.52,161.03,394.63,Single-ply,SBD,M
Boys,74.84,11,Jacob Gallatin,Montgomery,70.31,136.08,86.18,163.29,385.55,Single-ply,SBD,M
Boys,74.84,12,Michael Chladny,Conroe,74.84,145.15,86.18,154.22,385.55,Single-ply,SBD,M
Boys,74.84,13,Leonard Sterling,Bryan Rudder,70.31,142.88,81.65,158.76,383.29,Single-ply,SBD,M
Boys,74.84,14,Aleven Holloman,Conroe,67.59,149.69,72.57,149.69,371.95,Single-ply,SBD,M
Boys,74.84,15,Jason Dutchske,Caldwell,73.94,142.88,77.11,136.08,356.07,Single-ply,SBD,M
Boys,74.84,16,Michael Caldwell,Normangee,72.57,111.13,95.25,133.81,340.19,Single-ply,SBD,M
Boys,82.1,1,Carson Neal,Montgomery,76.66,192.78,117.93,188.24,498.95,Single-ply,SBD,M
Boys,82.1,2,Colton Wetuski,Montgomery,75.3,199.58,102.06,192.78,494.42,Single-ply,SBD,M
Boys,82.1,3,Dave Harris #2,Navasota,78.02,181.44,95.25,185.97,462.66,Single-ply,SBD,M
Boys,82.1,4,Adam Croy,Waller,81.65,156.49,99.79,192.78,449.06,Single-ply,SBD,M
Boys,82.1,5,Tony Tapia,Conroe Woodlands College Park,77.56,167.83,104.33,170.1,442.25,Single-ply,SBD,M
Boys,82.1,6,Lenard Abke,Navasota,79.38,181.44,99.79,158.76,439.98,Single-ply,SBD,M
Boys,82.1,7,Tyler Lucas,Magnolia West,76.66,165.56,95.25,170.1,430.91,Single-ply,SBD,M
Boys,82.1,8,Aaron Ratliff,Normangee,78.93,156.49,102.06,167.83,426.38,Single-ply,SBD,M
Boys,82.1,9,Carter Nenninger,Montgomery,77.56,154.22,111.13,156.49,421.84,Single-ply,SBD,M
Boys,82.1,10,Jesse Reyes,Trinity,79.83,,111.13,165.56,276.69,Single-ply,BD,M
Boys,89.81,1,Jason Paul,Conroe Woodlands College Park,89.81,254.01,145.15,213.19,612.35,Single-ply,SBD,M
Boys,89.81,2,Desmond Calhoun,Navasota,88.45,206.38,113.4,272.16,591.94,Single-ply,SBD,M
Boys,89.81,3,Marquez Byrd,Navasota,87.09,208.65,111.13,213.19,532.97,Single-ply,SBD,M
Boys,89.81,4,Josh Van-Sant,Waller,88.9,226.8,122.47,183.7,532.97,Single-ply,SBD,M
Boys,89.81,5,Austin Cude,Navasota,85.28,195.04,127.01,192.78,514.83,Single-ply,SBD,M
Boys,89.81,6,Damiyon Harris,Conroe,84.82,208.65,120.2,183.7,512.56,Single-ply,SBD,M
Boys,89.81,7,Bradley Zeka,Waller,84.37,181.44,117.93,199.58,498.95,Single-ply,SBD,M
Boys,89.81,8,Cody Mullins,Montgomery,85.28,176.9,122.47,181.44,480.81,Single-ply,SBD,M
Boys,89.81,9,Daniel Martinez #23,Navasota,85.28,172.37,99.79,154.22,426.38,Single-ply,SBD,M
Boys,89.81,10,Nathan Wilson #3,Conroe Woodlands College Park,86.64,108.86,52.16,113.4,274.42,Single-ply,SBD,M
Boys,89.81,DQ,Isaiah Vasquez,Bryan,85.73,,,,,Single-ply,SBD,M
Boys,99.79,1,Tyler Ray,Magnolia West,98.43,233.6,154.22,215.46,603.28,Single-ply,SBD,M
Boys,99.79,2,Ignacio Salianas,Conroe,94.8,213.19,122.47,185.97,521.63,Single-ply,SBD,M
Boys,99.79,3,Coleman Johnson,Bryan,99.34,181.44,102.06,233.6,517.1,Single-ply,SBD,M
Boys,99.79,4,David Ramirez,Navasota,92.99,204.12,117.93,176.9,498.95,Single-ply,SBD,M
Boys,99.79,5,Chaz Cavanaugh,Navasota,97.52,181.44,104.33,192.78,478.54,Single-ply,SBD,M
Boys,99.79,6,Josh Valenta,Trinity,97.52,174.63,129.27,165.56,469.47,Single-ply,SBD,M
Boys,99.79,7,Mason Storrs,Magnolia West,96.62,192.78,108.86,158.76,460.4,Single-ply,SBD,M
Boys,99.79,8,Luke Kretschemer,Magnolia West,92.08,170.1,102.06,161.03,433.18,Single-ply,SBD,M
Boys,99.79,9,Matthew Reed,Conroe Woodlands College Park,92.99,136.08,70.31,167.83,374.21,Single-ply,SBD,M
Boys,109.77,1,Kee Kee Johnson,Bryan,106.14,226.8,127.01,219.99,573.79,Single-ply,SBD,M
Boys,109.77,2,Justin Robertson,Waller,109.32,204.12,115.67,217.72,537.51,Single-ply,SBD,M
Boys,109.77,3,Artie Reyes,Bryan,107.5,204.12,136.08,195.04,535.24,Single-ply,SBD,M
Boys,109.77,4,Travis Hyatt,Waller,102.97,208.65,108.86,210.92,528.44,Single-ply,SBD,M
Boys,109.77,5,Sam Grubbs #2,Conroe Woodlands College Park,107.95,217.72,113.4,190.51,521.63,Single-ply,SBD,M
Boys,109.77,6,Jacob Hollech,Magnolia West,108.41,181.44,140.61,172.37,494.42,Single-ply,SBD,M
Boys,109.77,7,Luis Espinola,Conroe Woodlands College Park,100.7,170.1,133.81,188.24,492.15,Single-ply,SBD,M
Boys,109.77,8,Cal Bauer,Navasota,104.78,181.44,117.93,181.44,480.81,Single-ply,SBD,M
Boys,109.77,9,Austin Ellis,Montgomery,105.23,163.29,111.13,190.51,464.93,Single-ply,SBD,M
Boys,109.77,10,Kevin Rodriguez,Navasota,101.6,140.61,108.86,158.76,408.23,Single-ply,SBD,M
Boys,109.77,11,Jared Trinidad,Bryan Rudder,102.06,,113.4,165.56,278.96,Single-ply,BD,M
Boys,124.74,1,Will Demmings,Conroe,120.66,267.62,151.95,213.19,632.76,Single-ply,SBD,M
Boys,124.74,2,Jose Guevera,Magnolia West,117.48,233.6,136.08,233.6,603.28,Single-ply,SBD,M
Boys,124.74,3,Charles Owens #2,Bryan Rudder,122.02,267.62,127.01,204.12,598.74,Single-ply,SBD,M
Boys,124.74,4,Cory Ross,Navasota,124.74,226.8,167.83,195.04,589.67,Single-ply,SBD,M
Boys,124.74,5,Christian Jones,Navasota,116.57,235.87,145.15,204.12,585.13,Single-ply,SBD,M
Boys,124.74,6,Roberto Requena,Caldwell,113.4,215.46,127.01,224.53,566.99,Single-ply,SBD,M
Boys,124.74,7,TJ Anderson,Conroe,121.56,213.19,124.74,213.19,551.11,Single-ply,SBD,M
Boys,124.74,8,Cole Geigley,Waller,120.66,213.19,117.93,195.04,526.17,Single-ply,SBD,M
Boys,124.74,9,Weston Thomas,Conroe,111.13,195.04,127.01,190.51,512.56,Single-ply,SBD,M
Boys,124.74,10,Trent Watkins,Normangee,112.94,183.7,102.06,183.7,469.47,Single-ply,SBD,M
Boys,124.74,11,Chris Head,Bryan,116.12,124.74,90.72,158.76,374.21,Single-ply,SBD,M
Boys,124.74,12,Brody Burrus,Waller,121.11,226.8,108.86,,335.66,Single-ply,SB,M
Boys,124.74+,1,Jordan Wells,Navasota,128.37,281.23,181.44,281.23,743.89,Single-ply,SBD,M
Boys,124.74+,2,Domonique Merrell,Waller,131.09,249.48,136.08,219.99,605.55,Single-ply,SBD,M
Boys,124.74+,3,Nathanial Grant,Conroe Woodlands College Park,138.35,167.83,104.33,165.56,437.72,Single-ply,SBD,M
